{
  "testing-setup": {
   "title": "Testing environment"
  },
  "first-rule": {
   "title": "Writing your first rule"
  },
  "advanced-rule": {
   "title": "Writing advanced rules"
  },
  "good-practice": {
   "title": "Good practice guide"
  },
  "share-rule": {
   "title": "Share your rules"
  }
}
